{
    "user_info": [
        {
            "user_token": "J0FPZ9TDT62MUJV77RFEICNMN3NEYGJ2",
            "user_id": 311,
            "timestamp": 1549013441.169815,
            "game_id": 2,
            "user_operation": "opened"
        },
        {
            "user_token": "N1RMQU331PA6ZFEKUIW7NJH6DL7VT2JN",
            "user_id": 311,
            "timestamp": 1549013441.169815,
            "game_id": 2,
            "user_operation": "opened"
        },
        {
            "user_token": "ZNT2KT74NPKJRVMN3GIIH02UGKPPQ6IX",
            "user_id": 311,
            "timestamp": 1549013441.169815,
            "game_id": 1,
            "user_operation": "opened"
        },
        {
            "user_token": "01QJ83MYVA74UWHTKBYJDLIKXON9PEUH",
            "user_id": 311,
            "timestamp": 1549013441.169815,
            "game_id": 2,
            "user_operation": "opened"
        },
        {
            "user_token": "LY3YIADQGOFLMERH9TBU6HM99TC12OI5",
            "user_id": 311,
            "timestamp": 1549013441.169815,
            "game_id": 2,
            "user_operation": "opened"
        },
        {
            "user_token": "SMA0N4H5QZXWXIXT4OV6YA7PHP3FVCFR",
            "user_id": 311,
            "timestamp": 1549013441.169815,
            "game_id": 2,
            "user_operation": "spined"
        },
        {
            "user_token": "XWBHV7YW8F0R3CLBAJ03GYIBP5ZP4IFG",
            "user_id": 311,
            "timestamp": 1549013441.1708114,
            "game_id": 2,
            "user_operation": "spined"
        },
        {
            "user_token": "ZPHIA3LLGC82IMNCIWML8F5K9DUWSQAB",
            "user_id": 311,
            "timestamp": 1549013441.1708114,
            "game_id": 2,
            "user_operation": "spined"
        },
        {
            "user_token": "6IBLI1VY129JCGAFAY9QLIPF83W7SPZC",
            "user_id": 311,
            "timestamp": 1549013441.1708114,
            "game_id": 1,
            "user_operation": "spined"
        },
        {
            "user_token": "O7XOIT2UMXE4ZF0Y44QCNKKXOZOKT4JR",
            "user_id": 311,
            "timestamp": 1549013441.1708114,
            "game_id": 1,
            "user_operation": "spined"
        }
    ]
}
